{
  "color-primary-100": "#D6E4FF",
  "color-primary-200": "#ADC8FF",
  "color-primary-300": "#84A9FF",
  "color-primary-400": "#6690FF",
  "color-primary-500": "#3366FF",
  "color-primary-600": "#254EDB",
  "color-primary-700": "#1939B7",
  "color-primary-800": "#102693",
  "color-primary-900": "#091A7A",
  "color-primary-transparent-100": "rgba(51, 102, 255, 0.08)",
  "color-primary-transparent-200": "rgba(51, 102, 255, 0.16)",
  "color-primary-transparent-300": "rgba(51, 102, 255, 0.24)",
  "color-primary-transparent-400": "rgba(51, 102, 255, 0.32)",
  "color-primary-transparent-500": "rgba(51, 102, 255, 0.4)",
  "color-primary-transparent-600": "rgba(51, 102, 255, 0.48)",
  "color-success-100": "#F4FDCD",
  "color-success-200": "#E7FB9B",
  "color-success-300": "#D3F469",
  "color-success-400": "#BDEA43",
  "color-success-500": "#9EDD0B",
  "color-success-600": "#81BE08",
  "color-success-700": "#679F05",
  "color-success-800": "#4F8003",
  "color-success-900": "#3E6A02",
  "color-success-transparent-100": "rgba(158, 221, 11, 0.08)",
  "color-success-transparent-200": "rgba(158, 221, 11, 0.16)",
  "color-success-transparent-300": "rgba(158, 221, 11, 0.24)",
  "color-success-transparent-400": "rgba(158, 221, 11, 0.32)",
  "color-success-transparent-500": "rgba(158, 221, 11, 0.4)",
  "color-success-transparent-600": "rgba(158, 221, 11, 0.48)",
  "color-info-100": "#D6FEFB",
  "color-info-200": "#AEFEFE",
  "color-info-300": "#86F4FC",
  "color-info-400": "#67E5FA",
  "color-info-500": "#36CDF7",
  "color-info-600": "#27A2D4",
  "color-info-700": "#1B7BB1",
  "color-info-800": "#11588F",
  "color-info-900": "#0A3F76",
  "color-info-transparent-100": "rgba(54, 205, 247, 0.08)",
  "color-info-transparent-200": "rgba(54, 205, 247, 0.16)",
  "color-info-transparent-300": "rgba(54, 205, 247, 0.24)",
  "color-info-transparent-400": "rgba(54, 205, 247, 0.32)",
  "color-info-transparent-500": "rgba(54, 205, 247, 0.4)",
  "color-info-transparent-600": "rgba(54, 205, 247, 0.48)",
  "color-warning-100": "#FFF5D7",
  "color-warning-200": "#FFE8AF",
  "color-warning-300": "#FFD887",
  "color-warning-400": "#FFC969",
  "color-warning-500": "#FFAF38",
  "color-warning-600": "#DB8C28",
  "color-warning-700": "#B76C1C",
  "color-warning-800": "#934F11",
  "color-warning-900": "#7A3B0A",
  "color-warning-transparent-100": "rgba(255, 175, 56, 0.08)",
  "color-warning-transparent-200": "rgba(255, 175, 56, 0.16)",
  "color-warning-transparent-300": "rgba(255, 175, 56, 0.24)",
  "color-warning-transparent-400": "rgba(255, 175, 56, 0.32)",
  "color-warning-transparent-500": "rgba(255, 175, 56, 0.4)",
  "color-warning-transparent-600": "rgba(255, 175, 56, 0.48)",
  "color-danger-100": "#FFE7D8",
  "color-danger-200": "#FFC8B1",
  "color-danger-300": "#FFA38A",
  "color-danger-400": "#FF806D",
  "color-danger-500": "#FF463D",
  "color-danger-600": "#DB2C33",
  "color-danger-700": "#B71E31",
  "color-danger-800": "#93132D",
  "color-danger-900": "#7A0B2B",
  "color-danger-transparent-100": "rgba(255, 70, 61, 0.08)",
  "color-danger-transparent-200": "rgba(255, 70, 61, 0.16)",
  "color-danger-transparent-300": "rgba(255, 70, 61, 0.24)",
  "color-danger-transparent-400": "rgba(255, 70, 61, 0.32)",
  "color-danger-transparent-500": "rgba(255, 70, 61, 0.4)",
  "color-danger-transparent-600": "rgba(255, 70, 61, 0.48)"
}